Passion Driven Statistics. PDS
…
> NESARCtbl <- tbl_df(NESARC) %>% 
+   rename(UniqueID = IDNUM, EthanolConsumption = ETOTLCA2, Ethnicity = ETHRACE2A, 
+          SmokingFrequency = S3AQ3B1, Age = AGE, MajorDepression = MAJORDEPLIFE, Sex = SEX, 
+          DysthymiaLifetime = DYSLIFE, TobaccoDependence = TAB12MDX, DailyCigsSmoked = S3AQ3C1) %>% 
+   select(UniqueID, EthanolConsumption, Ethnicity, SmokingFrequency, Age, MajorDepression, 
+          DysthymiaLifetime, TobaccoDependence, DailyCigsSmoked, S3AQ1A, CHECK321, 
+          SmokingFrequency, Sex)  
> NESARCtbl

# A tibble: 43,093 × 12
   UniqueID EthanolConsumption Ethnicity SmokingFrequency   Age
     <fctr>              <dbl>    <fctr>           <fctr> <dbl>
1         1                 NA         5               NA    23
2         2             0.0014         5               NA    28
3         3                 NA         5               NA    81
4         4                 NA         5               NA    18
5         5                 NA         2               NA    36
6         6             0.0021         2               NA    34
7         7             0.0033         2               NA    19
8         8             0.0271         1               NA    84
9         9             0.0295         1               NA    29
10       10             0.1565         5               NA    18
# ... with 43,083 more rows, and 7 more variables: MajorDepression <fctr>,
#   DysthymiaLifetime <fctr>, TobaccoDependence <fctr>,
#   DailyCigsSmoked <dbl>, S3AQ1A <fctr>, CHECK321 <fctr>, Sex <fctr>
…
Creating a New Variable with mutate

> MINI <- tbl_df(NESARC) %>% 
+   select(S1Q24FT, S1Q24IN, S1Q24LB, SEX) %>% 
+   filter(S1Q24FT < 99, S1Q24IN < 99, S1Q24LB < 999) %>% 
+   mutate(Inches = (S1Q24FT*12 + S1Q24IN),
+          Sex = factor(SEX, labels = c("Male", "Female"))) %>% 
+   rename(Weight = S1Q24LB)
> MINI

# A tibble: 41,654 × 6
   S1Q24FT S1Q24IN Weight    SEX Inches    Sex
     <dbl>   <dbl>  <dbl> <fctr>  <dbl> <fctr>
1        5       7    195      1     67   Male
2        5       1    127      2     61 Female
3        5       4    185      2     64 Female
4        5       7    180      1     67   Male
5        6       1    220      1     73   Male
6        5       5    140      2     65 Female
7        5       9    160      1     69   Male
8        5       4    120      2     64 Female
9        5       4    140      2     64 Female
10       5      10    150      2     70 Female
# ... with 41,644 more rows
…
  0%  25%  50%  75% 100% 
   1  150  420  600 2970 

> NESARCtbl$CigsSmokedFac <- cut(NESARCtbl$TotalCigsSmoked, breaks = proportions, 
+                                include.lowest = TRUE)
> NESARCtbl

# A tibble: 43,093 × 15
   UniqueID EthanolConsumption Ethnicity SmokingFrequency   Age
     <fctr>              <dbl>    <fctr>           <fctr> <dbl>
1         1                 NA         5               NA    23
2         2             0.0014         5               NA    28
3         3                 NA         5               NA    81
4         4                 NA         5               NA    18
5         5                 NA         2               NA    36
6         6             0.0021         2               NA    34
7         7             0.0033         2               NA    19
8         8             0.0271         1               NA    84
9         9             0.0295         1               NA    29
10       10             0.1565         5               NA    18
# ... with 43,083 more rows, and 10 more variables:
#   MajorDepression <fctr>, DysthymiaLifetime <fctr>,
#   TobaccoDependence <fctr>, DailyCigsSmoked <dbl>, S3AQ1A <fctr>,
#   CHECK321 <fctr>, Sex <fctr>, DaysSmoke <dbl>, TotalCigsSmoked <dbl>,
#   CigsSmokedFac <fctr>
…
